e.Append(CPPPATH = '$CORAL_HOME/src/CoralBase')
e.Append(CPPPATH = '$CORAL_HOME/src/CoralKernel')
e.Append(CPPPATH = '$CORAL_HOME/src/RelationalAccess')
e.Append(PACKAGE_LIBPATH = '$CORAL_HOME/$BUILDNAME/libs')
add_deps ('Control/AthenaBaseComps')
add_deps ('GaudiKernel')
add_deps ('LumiBlock/LumiBlockComps')
add_deps ('Trigger/TrigEvent/TrigDecisionInterface')
add_private_deps ('Control/AthenaKernel')
add_private_deps ('Control/SGMon/SGAudCore')
add_private_deps ('Database/AthenaPOOL/AthenaPoolUtilities')
add_private_deps ('Event/xAOD/xAODEventInfo')
add_private_deps ('Event/EventInfo')
add_private_deps ('Tools/LWHists')
add_private_deps ('Trigger/TrigAnalysis/TrigAnalysisInterfaces')
add_private_deps ('AtlasTest/TestTools')
install_jo ( exclude = [], 
            namelist = ['share/*.py'], )
install_python ( namelist = 'python/*.py', )
build_libdef ( defines = [], 
              interface = False, 
              libname = 'AthenaMonitoring', 
              private_includes = ['$CORAL_HOME/src/CoralBase', '$CORAL_HOME/src/CoralKernel', '$CORAL_HOME/src/RelationalAccess'], 
              private_libs = ['boost_filesystem', 'boost_thread', 'boost_system', 'lcg_CoralKernel', 'lcg_CoralBase', 'lcg_ConnectionService', 'lcg_RelationalAccess', 'uuid', 'AthenaKernel', 'SGAudCore', 'AthenaPoolUtilities', 'EventInfo', 'LWHists'], 
              pubheaders = ['AthenaMonitoring'], 
              public_includes = [], 
              public_libs = ['MathCore', 'Core', 'Tree', 'Hist', 'RIO', 'pthread', 'Graf', 'Graf3d', 'Gpad', 'Html', 'Postscript', 'Gui', 'GX11TTF', 'GX11', 'AthenaBaseComps', 'GaudiKernel', 'LumiBlockComps'], )
build_lib ( cliddb = False, 
           extra_libs = ['MathCore', 'Core', 'Tree', 'Hist', 'RIO', 'pthread', 'Graf', 'Graf3d', 'Gpad', 'Html', 'Postscript', 'Gui', 'GX11TTF', 'GX11', 'AthenaBaseComps', 'GaudiKernel', 'LumiBlockComps', 'boost_filesystem', 'boost_thread', 'boost_system', 'lcg_CoralKernel', 'lcg_CoralBase', 'lcg_ConnectionService', 'lcg_RelationalAccess', 'uuid', 'AthenaKernel', 'SGAudCore', 'AthenaPoolUtilities', 'EventInfo', 'LWHists'], 
           libname = 'AthenaMonitoring', 
           no_components = True, 
           srcs = 'src/*.cxx src/HistogramFiller/*.cxx', )
build_lib ( cliddb = True, 
           component = True, 
           extra_libs = ['AthenaMonitoring'], 
           libname = 'AthenaMonitoring_components', 
           srcs = 'src/components/*.cxx', )
