add_private_deps ('AtlasTest/TestTools')
add_private_deps ('Control/AthenaKernel')
add_private_deps ('Control/SGTools')
add_private_deps ('GaudiKernel')
install_python ( namelist = 'python/*.py', )
install_share ('share/Gaudi_clid.db')
build_lib ( cliddb = False, 
           component = True, 
           extra_libs = ['AthenaKernel', 'SGTools', 'GaudiKernel'], 
           libname = 'CLIDComps', 
           srcs = 'src/*.h src/*.cxx src/components/*.cxx', )
install_scripts ('share/clid test/_clid_unittest.py')
build_tests ( environment = ['JOBOPTSEARCHPATH=CLIDComps/share'], 
             extrapatterns = 'WARNING Could not resolve clid DB|^JobOptionsSvc +INFO|DEBUG Property update for OutputLevel', 
             libs = ['TestTools', 'AthenaKernel', 'SGTools', 'GaudiKernel'], 
             sources = ['test/ClassIDSvc_test.cxx'], 
             tests = ['ClassIDSvc_test'], )
