add_deps ('AtlasTest/TestTools')
add_deps ('Control/AthenaExamples/AthExFortranAlgorithm')
add_deps ('Control/AthenaExamples/AthExStoreGateExample')
add_deps ('Control/AthenaPython')
add_deps ('Control/MinimalRunTime')
add_private_deps ('Control/CxxUtils')
add_private_deps ('Control/AthContainers')
add_private_deps ('Control/AthLinks')
add_private_deps ('Control/AthenaExamples/ToyConversion')
add_private_deps ('Control/AthenaKernel')
add_private_deps ('Control/SGTools')
add_private_deps ('Control/StoreGate')
add_private_deps ('GaudiKernel')
install_jo ( exclude = [], 
            namelist = ['share/StoreGateTestCommon.txt', 'share/*.py'], )
install_python ( namelist = 'python/*.py', )
build_tests ( environment = ['JOBOPTSEARCHPATH=ControlTest/share:$BUILDNAME/joboptions:$JOBOPTSEARCHPATH'], 
             extrapatterns = 'HistogramPersis.* +INFO|EventPersistenc.*INFO|^JobOptionsSvc +INFO|IConversionSvc ptr not set', 
             libs = ['TestTools', 'ToyConversion', 'AthenaKernel', 'SGTools', 'GaudiKernel'], 
             sources = ['test/DataProxy_test.cxx'], 
             tests = ['DataProxy_test'], )
build_tests ( environment = ['JOBOPTSEARCHPATH=ControlTest/share:$BUILDNAME/joboptions:$JOBOPTSEARCHPATH'], 
             extrapatterns = '^ClassIDSvc +DEBUG|Histogram.* (DEBUG|INFO)|DetectorStore +DEBUG|ToyConversionSvc +DEBUG|EventDataSvc +DEBUG|EventPersis.* +(DEBUG|INFO)|HistoryStore +DEBUG|^JobOptionsSvc +INFO|^DataProxy +VERBOSE|^ProxyProviderSvc +DEBUG|^ServiceManager +DEBUG|Service base class initialized successfully|found service|DEBUG Property update for OutputLevel', 
             libs = ['TestTools', 'ToyConversion', 'AthenaKernel', 'SGTools', 'StoreGate', 'GaudiKernel'], 
             sources = ['test/ProxyProviderSvc_test.cxx'], 
             tests = ['ProxyProviderSvc_test'], )
build_tests ( environment = ['JOBOPTSEARCHPATH=ControlTest/share:$BUILDNAME/joboptions:$JOBOPTSEARCHPATH'], 
             extrapatterns = '^JobOptionsSvc +INFO|Service base class initialized successfully|DEBUG Property update for OutputLevel', 
             libs = ['TestTools', 'AthContainers', 'SGTools', 'StoreGate', 'GaudiKernel'], 
             sources = ['test/CircularDep_test.cxx'], 
             tests = ['CircularDep_test'], )
build_tests ( environment = ['JOBOPTSEARCHPATH=ControlTest/share:$BUILDNAME/joboptions:$JOBOPTSEARCHPATH'], 
             extrapatterns = '^JobOptionsSvc +INFO|Service base class initialized successfully|DEBUG Property update for OutputLevel', 
             libs = ['TestTools', 'AthLinks', 'AthenaKernel', 'AthContainers', 'SGTools', 'StoreGate', 'GaudiKernel'], 
             sources = ['test/SGDataLink_test.cxx'], 
             tests = ['SGDataLink_test'], )
build_tests ( environment = ['JOBOPTSEARCHPATH=ControlTest/share:$BUILDNAME/joboptions:$JOBOPTSEARCHPATH'], 
             extrapatterns = '^JobOptionsSvc +INFO|Service base class initialized successfully|DEBUG Property update for OutputLevel', 
             libs = ['TestTools', 'AthLinks', 'AthContainers', 'SGTools', 'StoreGate'], 
             sources = ['test/ElementLink_test.cxx'], 
             tests = ['ElementLink_test'], )
build_tests ( environment = ['JOBOPTSEARCHPATH=ControlTest/share:$BUILDNAME/joboptions:$JOBOPTSEARCHPATH'], 
             extrapatterns = '^JobOptionsSvc +INFO|Service base class initialized successfully|DEBUG Property update for OutputLevel', 
             libs = ['TestTools', 'AthLinks', 'AthContainers', 'SGTools', 'StoreGate', 'GaudiKernel'], 
             sources = ['test/ElementLinkVector_test.cxx'], 
             tests = ['ElementLinkVector_test'], )
build_tests ( environment = ['JOBOPTSEARCHPATH=ControlTest/share:$BUILDNAME/joboptions:$JOBOPTSEARCHPATH'], 
             extrapatterns = 'modifiable when retrieved|HistogramPersis.* +INFO|^JobOptionsSvc +INFO|Service base class initialized successfully|VERBOSE committing dataObj|DetectorStore.*error setting up proxy|DetectorStore.*record_impl: failed|DEBUG Property update for OutputLevel', 
             libs = ['TestTools', 'AthContainers', 'AthenaKernel', 'SGTools', 'SGtests', 'StoreGate'], 
             sources = ['test/StoreGateSvcClient_test.cxx'], 
             tests = ['StoreGateSvcClient_test'], )
build_tests ( environment = ['JOBOPTSEARCHPATH=ControlTest/share:$BUILDNAME/joboptions:$JOBOPTSEARCHPATH'], 
             extrapatterns = '^JobOptionsSvc +INFO|Service base class initialized successfully|DEBUG Property update for OutputLevel', 
             libs = ['TestTools', 'StoreGate', 'SGtests'], 
             sources = ['test/ClearStore_test.cxx'], 
             tests = ['ClearStore_test'], )
build_tests ( environment = ['JOBOPTSEARCHPATH=ControlTest/share:$BUILDNAME/joboptions:$JOBOPTSEARCHPATH'], 
             extrapatterns = '^JobOptionsSvc +INFO|Service base class initialized successfully|DEBUG Property update for OutputLevel', 
             libs = ['TestTools', 'StoreGate'], 
             sources = ['test/StoreID_test.cxx'], 
             tests = ['StoreID'], )
script_test ( extrapatterns = '^Py:ConfigurableDb +(WARNING|INFO|ERROR)|Py:Athena +INFO including file |Warning in .TEnvRec::ChangeValue.: duplicate entry|calling initialize_|ToolSvc.finalize.. +INFO| [A-Z]+ 2[0-9][0-9][0-9]$$|^Py:Athena +INFO|[Rr]oo[Ff]it|NIKHEF|DeprecationWarning: object.__new__|^  newobj =|^\\*+$$|drop-and-reload|^ *$$|we will keep the configuration around|ApplicationMgr +INFO|Start StoreGateSvc', 
             name = 'FortranAlgorithm', 
             test_cmd = ['test/FortranAlgorithm.sh'], )
script_test ( extrapatterns = '^Py:ConfigurableDb +(WARNING|INFO|ERROR)|Py:Athena +INFO including file |Warning in .TEnvRec::ChangeValue.: duplicate entry|ToolSvc.finalize.. +INFO|^WriteData +INFO in initialize$$| [A-Z]+ 2[0-9][0-9][0-9]$$|^Py:Athena +INFO|[Rr]oo[Ff]it|NIKHEF|DeprecationWarning: object.__new__|^  newobj =|^\\*+$$|drop-and-reload|^ *$$|we will keep the configuration around|object not modifiable when retrieved|Retrieved const handle to default|type EventInfo|^StoreGateSvc +DEBUG|^ of type|object modifiable when retrieved|ApplicationMgr +INFO|Start StoreGateSvc|TExMapRemove', 
             name = 'StoreGateReentrant', 
             test_cmd = ['test/StoreGateReentrant.sh'], )
script_test ( extrapatterns = '^Py:ConfigurableDb +(WARNING|INFO|ERROR)|Py:Athena +INFO including file |Warning in .TEnvRec::ChangeValue.: duplicate entry|ToolSvc.finalize.. +INFO|^WriteData +INFO in initialize$$| [A-Z]+ 2[0-9][0-9][0-9]$$|^Py:Athena +INFO|[Rr]oo[Ff]it|NIKHEF|DeprecationWarning: object.__new__|^  newobj =|^\\*+$$|drop-and-reload|^ *$$|we will keep the configuration around|object not modifiable when retrieved|Retrieved const handle to default|type EventInfo|^StoreGateSvc +DEBUG|^ of type|object modifiable when retrieved|ApplicationMgr +INFO|Start StoreGateSvc', 
             name = 'StoreGateGen', 
             test_cmd = ['test/StoreGateGen.sh'], )
script_test ( extrapatterns = '^Py:ConfigurableDb +(WARNING|INFO|ERROR)|Py:Athena +INFO including file |Warning in .TEnvRec::ChangeValue.: duplicate entry|ToolSvc.finalize.. +INFO|^WriteData +INFO in initialize$$| [A-Z]+ 2[0-9][0-9][0-9]$$|^Py:Athena +INFO|[Rr]oo[Ff]it|NIKHEF|DeprecationWarning: object.__new__|^  newobj =|^\\*+$$|drop-and-reload|^ *$$|we will keep the configuration around|object not modifiable when retrieved|Retrieved const handle to default|type EventInfo|^StoreGateSvc +DEBUG|^ of type|object modifiable when retrieved|ApplicationMgr +INFO|WARNING could not get proxy for key|Start StoreGateSvc', 
             name = 'StoreGateDFlow', 
             test_cmd = ['test/StoreGateDFlow.sh'], )
script_test ( extrapatterns = '^Py:ConfigurableDb +(WARNING|INFO|ERROR)|Py:Athena +INFO including file |Warning in .TEnvRec::ChangeValue.: duplicate entry|calling initialize_|ToolSvc.finalize.. +INFO| [A-Z]+ 2[0-9][0-9][0-9]$$|^Py:Athena +INFO|[Rr]oo[Ff]it|NIKHEF|DeprecationWarning: object.__new__|^  newobj =|^\\*+$$|drop-and-reload|^ *$$|we will keep the configuration around|ApplicationMgr +INFO|Start StoreGateSvc|already in TClassTable', 
             name = 'test_interactive_athena', 
             test_cmd = ['test/test_interactive_athena.sh'], )
