e.Append(CPPPATH = '$CLHEP_HOME/$BUILDNAME')
e.Append(CPPFLAGS = ' ' + '-DDSFMT_MEXP=19937')
e.Append(PACKAGE_LIBPATH = '$DSFMT_HOME/$BUILDNAME/libs')
install_jo ( exclude = [], 
            namelist = ['share/*.py'], )
install_python ( namelist = 'python/*.py', )
build_libdef ( defines = [], 
              interface = False, 
              libname = 'D3PDMakerTest', 
              private_includes = ['$CLHEP_HOME/$BUILDNAME'], 
              private_libs = ['CLHEP-Matrix', 'CLHEP-Vector', 'CLHEP-Random', 'CLHEP-GenericFunctions', 'CLHEP-Geometry', 'CLHEP-Evaluator', 'EventKernel', 'NavFourMom', 'MuonSimEvent', 'TrackRecord'], 
              pubheaders = ['D3PDMakerTest'], 
              public_includes = [], 
              public_libs = ['AthContainers', 'AthenaBaseComps', 'AthenaKernel', 'D3PDMakerUtils', 'Navigation', 'FourMom', 'ParticleEvent'], )
build_lib ( cliddb = False, 
           extra_libs = ['AthContainers', 'AthenaBaseComps', 'AthenaKernel', 'D3PDMakerUtils', 'Navigation', 'FourMom', 'ParticleEvent', 'CLHEP-Matrix', 'CLHEP-Vector', 'CLHEP-Random', 'CLHEP-GenericFunctions', 'CLHEP-Geometry', 'CLHEP-Evaluator', 'EventKernel', 'NavFourMom', 'MuonSimEvent', 'TrackRecord'], 
           libname = 'D3PDMakerTest', 
           no_components = True, 
           srcs = 'src/*.cxx', )
build_lib ( cliddb = True, 
           component = True, 
           extra_libs = ['D3PDMakerTest'], 
           libname = 'D3PDMakerTest_components', 
           srcs = 'src/components/*.cxx', )
build_dict ( dataLinks = [], 
            dictname = 'D3PDMakerTestDict', 
            elementLinkVectors = [], 
            elementLinks = [], 
            extra_libs = ['D3PDMakerTest'], 
            extra_srcs = [], 
            navigables = [], 
            parse_flags = '', )
script_test ( environment = ['ATLAS_REFERENCE_TAG=D3PDMakerTest/D3PDMakerTest-01-00-00'], 
             ignore_pattern = '^ *[^ ]+ +INFO |^Py:.* ::? +INFO|^.Entries :|no dictionary for class AttributeListLayout', 
             name = 'D3PDTest1', 
             test_cmd = ['test/D3PDTest1.sh'], )
