e.Append(CPPPATH = '$TDAQ_HOME/$BUILDNAME/CTPfragment')
e.Append(CPPPATH = '$TDAQ_HOME/CTPfragment')
e.Append(CPPPATH = '$TDAQ_HOME/compression')
e.Append(CPPPATH = '$TDAQ_HOME/dqm_core')
e.Append(CPPPATH = '$TDAQ_HOME/eformat')
e.Append(CPPPATH = '$TDAQ_HOME/ers')
e.Append(PUBLIC_CPPFLAGS = ' -I$TDAQ_HOME/$BUILDNAME/CTPfragment')
e.Append(PUBLIC_CPPFLAGS = ' -I$TDAQ_HOME/CTPfragment')
e.Append(PUBLIC_CPPFLAGS = ' -I$TDAQ_HOME/compression')
e.Append(PUBLIC_CPPFLAGS = ' -I$TDAQ_HOME/dqm_core')
e.Append(PUBLIC_CPPFLAGS = ' -I$TDAQ_HOME/eformat')
e.Append(PUBLIC_CPPFLAGS = ' -I$TDAQ_HOME/ers')
e.Append(PACKAGE_LIBPATH = '$TDAQ_HOME/$BUILDNAME/libs')
DataQualityInterfaces_cint= build_rootcint ( headers = ['DataQualityInterfaces/MiniConfig.h', 'DataQualityInterfaces/MiniConfigTreeNode.h', 'DataQualityInterfaces/HanApp.h', 'DataQualityInterfaces/HanConfig.h', 'DataQualityInterfaces/HanConfigAlgLimit.h', 'DataQualityInterfaces/HanConfigAlgPar.h', 'DataQualityInterfaces/HanConfigParMap.h', 'DataQualityInterfaces/HanConfigAssessor.h', 'DataQualityInterfaces/HanConfigCompAlg.h', 'DataQualityInterfaces/HanConfigGroup.h', 'DataQualityInterfaces/HanConfigMetadata.h', 'DataQualityInterfaces/ConditionsSingleton.h'], 
                libs = ['Hist', 'RIO', 'Tree', 'Core', 'MathCore', 'pthread', 'Graf', 'Graf3d', 'Gpad', 'Html', 'Postscript', 'Gui', 'GX11TTF', 'GX11', 'boost_system', 'boost_regex', 'boost_thread', 'boost_filesystem', 'dqm_core', 'dqm_core_io', 'eformat', 'ers', 'CTPfragment', 'CTPfragment', 'DataQualityInterfaces', 'Hist', 'RIO', 'Tree', 'Core', 'MathCore', 'pthread', 'Graf', 'Graf3d', 'Gpad', 'Html', 'Postscript', 'Gui', 'GX11TTF', 'GX11', 'boost_system', 'boost_regex', 'boost_thread', 'boost_filesystem', 'dqm_core', 'dqm_core_io', 'eformat', 'ers', 'CTPfragment', 'CTPfragment'], 
                linkdef_in = 'DataQualityInterfaces/LinkDef.h', 
                rootcint_name = '$BUILDDIR/DataQualityInterfaces_rootcint.cxx', )
build_libdef ( defines = [], 
              interface = False, 
              libname = 'DataQualityInterfaces', 
              private_includes = [], 
              private_libs = [], 
              pubheaders = ['DataQualityInterfaces'], 
              public_includes = ['$TDAQ_HOME/dqm_core', '$TDAQ_HOME/eformat', '$TDAQ_HOME/compression', '$TDAQ_HOME/ers', '$TDAQ_HOME/CTPfragment', '$TDAQ_HOME/$BUILDNAME/CTPfragment'], 
              public_libs = ['Hist', 'RIO', 'Tree', 'Core', 'MathCore', 'pthread', 'Graf', 'Graf3d', 'Gpad', 'Html', 'Postscript', 'Gui', 'GX11TTF', 'GX11', 'boost_system', 'boost_regex', 'boost_thread', 'boost_filesystem', 'dqm_core', 'dqm_core_io', 'eformat', 'ers', 'CTPfragment', 'CTPfragment'], )
build_lib ( cliddb = False, 
           extra_libs = ['Hist', 'RIO', 'Tree', 'Core', 'MathCore', 'pthread', 'Graf', 'Graf3d', 'Gpad', 'Html', 'Postscript', 'Gui', 'GX11TTF', 'GX11', 'boost_system', 'boost_regex', 'boost_thread', 'boost_filesystem', 'dqm_core', 'dqm_core_io', 'eformat', 'ers', 'CTPfragment', 'CTPfragment'], 
           libname = 'DataQualityInterfaces', 
           no_components = True, 
           srcs = 'src/HanAlgorithmConfig.cxx src/HanApp.cxx src/HanConfig.cxx src/HanConfigAlgLimit.cxx src/HanConfigAlgPar.cxx src/HanConfigParMap.cxx src/HanConfigAssessor.cxx src/HanConfigCompAlg.cxx src/HanConfigGroup.cxx src/HanConfigMetadata.cxx src/HanOutput.cxx src/MiniConfig.cxx src/MiniConfigTreeNode.cxx src/CompositeAlgorithm.cxx src/HanInputRootFile.cxx src/HanUtils.cxx src/ConditionsSingleton.cxx $BUILDDIR/DataQualityInterfaces_rootcint.cxx', )
build_bin ( libs = ['Hist', 'RIO', 'Tree', 'Core', 'MathCore', 'pthread', 'Graf', 'Graf3d', 'Gpad', 'Html', 'Postscript', 'Gui', 'GX11TTF', 'GX11', 'boost_system', 'boost_regex', 'boost_thread', 'boost_filesystem', 'dqm_core', 'dqm_core_io', 'eformat', 'ers', 'CTPfragment', 'CTPfragment', 'DataQualityInterfaces'], 
           name = 'han', 
           srcs = ['src/han.cxx'], 
           suffix = '', )
build_bin ( libs = ['Hist', 'RIO', 'Tree', 'Core', 'MathCore', 'pthread', 'Graf', 'Graf3d', 'Gpad', 'Html', 'Postscript', 'Gui', 'GX11TTF', 'GX11', 'boost_system', 'boost_regex', 'boost_thread', 'boost_filesystem', 'dqm_core', 'dqm_core_io', 'eformat', 'ers', 'CTPfragment', 'CTPfragment', 'DataQualityInterfaces'], 
           name = 'han-config-gen', 
           srcs = ['src/han_config_gen.cxx'], 
           suffix = '', )
build_bin ( libs = ['Hist', 'RIO', 'Tree', 'Core', 'MathCore', 'pthread', 'Graf', 'Graf3d', 'Gpad', 'Html', 'Postscript', 'Gui', 'GX11TTF', 'GX11', 'boost_system', 'boost_regex', 'boost_thread', 'boost_filesystem', 'dqm_core', 'dqm_core_io', 'eformat', 'ers', 'CTPfragment', 'CTPfragment', 'DataQualityInterfaces'], 
           name = 'han-config-print', 
           srcs = ['src/han_config_print.cxx'], 
           suffix = '', )
