e.Append(CPPPATH = '$CLHEP_HOME/$BUILDNAME')
e.Append(CPPPATH = '$CORAL_HOME/src/CoralBase')
e.Append(CPPPATH = '$CORAL_HOME/src/CoralKernel')
e.Append(CPPPATH = '$CORAL_HOME/src/RelationalAccess')
e.Append(PUBLIC_CPPFLAGS = ' -I$CLHEP_HOME/$BUILDNAME')
e.Append(CPPFLAGS = ' ' + '-DDSFMT_MEXP=19937')
e.Append(PACKAGE_LIBPATH = '$DSFMT_HOME/$BUILDNAME/libs')
e.Append(PACKAGE_LIBPATH = '$CORAL_HOME/$BUILDNAME/libs')
add_deps ('Control/SGTools')
add_deps ('Control/StoreGate')
add_deps ('DetectorDescription/GeoModel/GeoModelKernel')
add_private_deps ('Control/AthenaKernel')
add_private_deps ('Control/CxxUtils')
add_private_deps ('Database/AthenaPOOL/RDBAccessSvc')
add_private_deps ('DetectorDescription/GeoModel/GeoModelInterfaces')
add_private_deps ('DetectorDescription/GeoModel/GeoModelUtilities')
add_private_deps ('GaudiKernel')
build_libdef ( defines = [], 
              interface = False, 
              libname = 'GeoSpecialShapes', 
              private_includes = ['$CORAL_HOME/src/CoralBase', '$CORAL_HOME/src/CoralKernel', '$CORAL_HOME/src/RelationalAccess'], 
              private_libs = ['boost_filesystem', 'boost_thread', 'boost_system', 'lcg_CoralKernel', 'lcg_CoralBase', 'lcg_ConnectionService', 'lcg_RelationalAccess', 'uuid', 'Matrix', 'Core', 'Tree', 'MathCore', 'Hist', 'RIO', 'pthread', 'MathMore', 'Minuit', 'Minuit2', 'Physics', 'HistPainter', 'Rint', 'gsl', 'cblas', 'AthenaKernel', 'CxxUtils', 'GeoModelUtilities', 'GaudiKernel'], 
              pubheaders = ['GeoSpecialShapes'], 
              public_includes = ['$CLHEP_HOME/$BUILDNAME'], 
              public_libs = ['CLHEP-Matrix', 'CLHEP-Vector', 'CLHEP-Random', 'CLHEP-GenericFunctions', 'CLHEP-Geometry', 'CLHEP-Evaluator', 'SGTools', 'GeoModelKernel', 'StoreGate', 'SGtests'], )
build_lib ( cliddb = False, 
           extra_libs = ['CLHEP-Matrix', 'CLHEP-Vector', 'CLHEP-Random', 'CLHEP-GenericFunctions', 'CLHEP-Geometry', 'CLHEP-Evaluator', 'SGTools', 'GeoModelKernel', 'StoreGate', 'SGtests', 'boost_filesystem', 'boost_thread', 'boost_system', 'lcg_CoralKernel', 'lcg_CoralBase', 'lcg_ConnectionService', 'lcg_RelationalAccess', 'uuid', 'Matrix', 'Core', 'Tree', 'MathCore', 'Hist', 'RIO', 'pthread', 'MathMore', 'Minuit', 'Minuit2', 'Physics', 'HistPainter', 'Rint', 'gsl', 'cblas', 'AthenaKernel', 'CxxUtils', 'GeoModelUtilities', 'GaudiKernel'], 
           libname = 'GeoSpecialShapes', 
           no_components = True, 
           srcs = 'src/*.cxx src/LArWheelCalculator_Impl/*.cxx', )
build_dict ( dataLinks = [], 
            dictfile = '$PACKAGE/GeoSpecialShapes/LArGeoCheckerDict.h', 
            dictname = 'LArGeoCheckerDict', 
            elementLinkVectors = [], 
            elementLinks = [], 
            extra_libs = ['boost_filesystem', 'boost_thread', 'boost_system', 'lcg_CoralKernel', 'lcg_CoralBase', 'lcg_ConnectionService', 'lcg_RelationalAccess', 'uuid', 'Matrix', 'Core', 'Tree', 'MathCore', 'Hist', 'RIO', 'pthread', 'MathMore', 'Minuit', 'Minuit2', 'Physics', 'HistPainter', 'Rint', 'gsl', 'cblas', 'CLHEP-Matrix', 'CLHEP-Vector', 'CLHEP-Random', 'CLHEP-GenericFunctions', 'CLHEP-Geometry', 'CLHEP-Evaluator', 'SGTools', 'StoreGate', 'SGtests', 'GeoModelKernel', 'AthenaKernel', 'CxxUtils', 'GeoModelUtilities', 'GaudiKernel', 'GeoSpecialShapes'], 
            extra_srcs = [], 
            navigables = [], 
            parse_flags = '', )
