add_deps ('Control/AthToolSupport/AsgTools')
add_private_deps ('GaudiKernel')
install_python ( namelist = 'python/*.py', )
build_libdef ( defines = [], 
              interface = False, 
              libname = 'PathResolver', 
              private_includes = [], 
              private_libs = ['boost_filesystem', 'RIO', 'Core', 'GaudiKernel'], 
              pubheaders = ['PathResolver'], 
              public_includes = [], 
              public_libs = ['AsgTools'], )
build_lib ( cliddb = False, 
           extra_libs = ['AsgTools', 'boost_filesystem', 'RIO', 'Core', 'GaudiKernel'], 
           libname = 'PathResolver', 
           no_components = True, 
           srcs = 'Root/*.cxx', )
build_dict ( dataLinks = [], 
            dictname = 'PathResolverDict', 
            elementLinkVectors = [], 
            elementLinks = [], 
            extra_libs = ['PathResolver'], 
            extra_srcs = [], 
            navigables = [], 
            parse_flags = '', )
install_scripts ('python/showReleaseNotes.py')
build_tests ( environment = ['DATAPATH=PathResolver/test/A:PathResolver/test/B:PathResolver/test:$$DATAPATH'], 
             libs = ['PathResolver'], 
             sources = ['test/PathResolver_test.cxx'], 
             tests = ['PathResolver_test'], )
