add_deps ('Control/AthenaKernel')
add_deps ('Control/CxxUtils')
add_deps ('GaudiKernel')
add_private_deps ('AtlasTest/TestTools')
add_private_deps ('Control/SGMon/SGAudCore')
build_libdef ( defines = [], 
              interface = False, 
              libname = 'SGTools', 
              private_includes = [], 
              private_libs = ['Core', 'Tree', 'MathCore', 'Hist', 'RIO', 'pthread', 'TestTools', 'SGAudCore'], 
              pubheaders = ['SGTools'], 
              public_includes = [], 
              public_libs = ['boost_thread', 'boost_filesystem', 'boost_system', 'AthenaKernel', 'CxxUtils', 'GaudiKernel'], )
build_lib ( cliddb = False, 
           extra_libs = ['boost_thread', 'boost_filesystem', 'boost_system', 'AthenaKernel', 'CxxUtils', 'GaudiKernel', 'Core', 'Tree', 'MathCore', 'Hist', 'RIO', 'pthread', 'TestTools', 'SGAudCore'], 
           libname = 'SGTools', 
           no_components = True, 
           srcs = 'src/*.cxx', )
build_dict ( dataLinks = [], 
            dictname = 'SGToolsDict', 
            elementLinkVectors = [], 
            elementLinks = [], 
            extra_libs = ['boost_thread', 'boost_filesystem', 'boost_system', 'Core', 'Tree', 'MathCore', 'Hist', 'RIO', 'pthread', 'AthenaKernel', 'CxxUtils', 'GaudiKernel', 'TestTools', 'SGAudCore', 'SGTools'], 
            extra_srcs = [], 
            navigables = [], 
            parse_flags = '', )
build_tests ( libs = ['boost_thread', 'boost_filesystem', 'boost_system', 'Core', 'Tree', 'MathCore', 'Hist', 'RIO', 'pthread', 'AthenaKernel', 'CxxUtils', 'GaudiKernel', 'TestTools', 'SGAudCore', 'SGTools'], 
             sources = ['test/CLIDRegistry_test.cxx'], 
             tests = ['CLIDRegistry_test'], )
build_tests ( libs = ['boost_thread', 'boost_filesystem', 'boost_system', 'Core', 'Tree', 'MathCore', 'Hist', 'RIO', 'pthread', 'AthenaKernel', 'CxxUtils', 'GaudiKernel', 'TestTools', 'SGAudCore', 'SGTools'], 
             sources = ['test/VersionedKey_test.cxx'], 
             tests = ['VersionedKey_test'], )
build_tests ( extrapatterns = '^HistogramPersis.* INFO', 
             libs = ['boost_thread', 'boost_filesystem', 'boost_system', 'Core', 'Tree', 'MathCore', 'Hist', 'RIO', 'pthread', 'AthenaKernel', 'CxxUtils', 'GaudiKernel', 'TestTools', 'SGAudCore', 'SGTools'], 
             sources = ['test/DataBucket_test.cxx'], 
             tests = ['DataBucket_test'], )
build_tests ( libs = ['boost_thread', 'boost_filesystem', 'boost_system', 'Core', 'Tree', 'MathCore', 'Hist', 'RIO', 'pthread', 'AthenaKernel', 'CxxUtils', 'GaudiKernel', 'TestTools', 'SGAudCore', 'SGTools'], 
             sources = ['test/BaseInfo_test.cxx'], 
             tests = ['BaseInfo_test'], )
build_tests ( libs = ['boost_thread', 'boost_filesystem', 'boost_system', 'Core', 'Tree', 'MathCore', 'Hist', 'RIO', 'pthread', 'AthenaKernel', 'CxxUtils', 'GaudiKernel', 'TestTools', 'SGAudCore', 'SGTools'], 
             sources = ['test/safe_clid_test.cxx'], 
             tests = ['safe_clid_test'], )
build_tests ( libs = ['boost_thread', 'boost_filesystem', 'boost_system', 'Core', 'Tree', 'MathCore', 'Hist', 'RIO', 'pthread', 'AthenaKernel', 'CxxUtils', 'GaudiKernel', 'TestTools', 'SGAudCore', 'SGTools'], 
             sources = ['test/crc64_test.cxx'], 
             tests = ['crc64_test'], )
build_tests ( libs = ['boost_thread', 'boost_filesystem', 'boost_system', 'Core', 'Tree', 'MathCore', 'Hist', 'RIO', 'pthread', 'AthenaKernel', 'CxxUtils', 'GaudiKernel', 'TestTools', 'SGAudCore', 'SGTools'], 
             sources = ['test/exceptions_test.cxx'], 
             tests = ['exceptions_test'], )
build_tests ( libs = ['boost_thread', 'boost_filesystem', 'boost_system', 'Core', 'Tree', 'MathCore', 'Hist', 'RIO', 'pthread', 'AthenaKernel', 'CxxUtils', 'GaudiKernel', 'TestTools', 'SGAudCore', 'SGTools'], 
             sources = ['test/StringPool_test.cxx'], 
             tests = ['StringPool_test'], )
build_tests ( libs = ['boost_thread', 'boost_filesystem', 'boost_system', 'Core', 'Tree', 'MathCore', 'Hist', 'RIO', 'pthread', 'AthenaKernel', 'CxxUtils', 'GaudiKernel', 'TestTools', 'SGAudCore', 'SGTools'], 
             sources = ['test/ClassName_test.cxx'], 
             tests = ['ClassName_test'], )
build_tests ( libs = ['boost_thread', 'boost_filesystem', 'boost_system', 'Core', 'Tree', 'MathCore', 'Hist', 'RIO', 'pthread', 'AthenaKernel', 'CxxUtils', 'GaudiKernel', 'TestTools', 'SGAudCore', 'SGTools'], 
             sources = ['test/DataProxy_test.cxx'], 
             tests = ['DataProxy_test'], )
build_tests ( libs = ['boost_thread', 'boost_filesystem', 'boost_system', 'Core', 'Tree', 'MathCore', 'Hist', 'RIO', 'pthread', 'AthenaKernel', 'CxxUtils', 'GaudiKernel', 'TestTools', 'SGAudCore', 'SGTools'], 
             sources = ['test/DataStore_test.cxx'], 
             tests = ['DataStore_test'], )
build_tests ( libs = ['boost_thread', 'boost_filesystem', 'boost_system', 'Core', 'Tree', 'MathCore', 'Hist', 'RIO', 'pthread', 'AthenaKernel', 'CxxUtils', 'GaudiKernel', 'TestTools', 'SGAudCore', 'SGTools'], 
             sources = ['test/TransientAddress_test.cxx'], 
             tests = ['TransientAddress_test'], )
build_tests ( libs = ['boost_thread', 'boost_filesystem', 'boost_system', 'Core', 'Tree', 'MathCore', 'Hist', 'RIO', 'pthread', 'AthenaKernel', 'CxxUtils', 'GaudiKernel', 'TestTools', 'SGAudCore', 'SGTools'], 
             sources = ['test/CurrentEventStore_test.cxx'], 
             tests = ['CurrentEventStore_test'], )
build_tests ( libs = ['boost_thread', 'boost_filesystem', 'boost_system', 'Core', 'Tree', 'MathCore', 'Hist', 'RIO', 'pthread', 'AthenaKernel', 'CxxUtils', 'GaudiKernel', 'TestTools', 'SGAudCore', 'SGTools'], 
             sources = ['test/SGFolderItem_test.cxx'], 
             tests = ['SGFolderItem_test'], )
