install_xml ('data/*.dtd')
install_xml ('data/*.xml')
install_xml ('data/ctp.xml')
install_xml ('data/ctp_ddr.xml')
build_libdef ( defines = [], 
              interface = False, 
              libname = 'TriggerMenuCompiler', 
              private_includes = [], 
              private_libs = [], 
              pubheaders = ['TriggerMenuCompiler'], 
              public_includes = [], 
              public_libs = ['xerces-c'], )
build_lib ( cliddb = False, 
           extra_libs = ['xerces-c'], 
           libname = 'TriggerMenuCompiler', 
           no_components = True, 
           srcs = 'src/TMCTeeBuffer.cxx src/TMCUtilities.cxx src/TMCException.cxx src/TMCErrorHandler.cxx src/TMCLineNumberTag.cxx src/TMCDomParser.cxx src/TMCCommon.cxx src/TMCObject.cxx src/TMCConfiguration.cxx src/TMCNode.cxx src/TMCTree.cxx src/TMCPort.cxx src/TMCDevice.cxx src/TMCNet.cxx src/TMCPlacedObject.cxx src/TMCLutDefinitionsWriter.cxx src/TMCXmlValidator.cxx src/CentralTriggerProcessor.cxx src/PatternInTime.cxx src/PatternInTimePair.cxx src/TriggerInputSignal.cxx src/TriggerInputSignalPair.cxx src/TriggerInputCable.cxx src/TriggerElement.cxx src/TriggerThreshold.cxx src/TriggerCondition.cxx src/TriggerCombination.cxx src/TriggerCombinationClique.cxx src/ContentAddressableMemory.cxx src/SumTermResult.cxx src/TriggerSumTerm.cxx src/TriggerItem.cxx src/TriggerMenu.cxx src/LookupTable.cxx src/SwitchMatrix.cxx src/BacktrackPlacement.cxx src/R1BacktrackPlacement.cxx src/CliquePlacement.cxx src/FirstFitPlacement.cxx src/IterativePlacement.cxx src/RoutedPlacement.cxx src/TriggerMenuCompiler.cxx src/TriggerMenuComparison.cxx', )
build_bin ( libs = ['xerces-c', 'TriggerMenuCompiler'], 
           name = 'triggerMenuCompilerApp', 
           srcs = ['src/test/triggerMenuCompilerApp.cxx'], 
           suffix = '', )
build_bin ( libs = ['xerces-c', 'TriggerMenuCompiler'], 
           name = 'compareTriggerMenu', 
           srcs = ['src/test/compareTriggerMenu.cxx'], 
           suffix = '', )
build_bin ( libs = ['xerces-c', 'TriggerMenuCompiler'], 
           name = 'copyTriggerMenu', 
           srcs = ['src/test/copyTriggerMenu.cxx'], 
           suffix = '', )
build_bin ( libs = ['xerces-c', 'TriggerMenuCompiler'], 
           name = 'timeTriggerMenu', 
           srcs = ['src/test/timeTriggerMenu.cxx'], 
           suffix = '', )
build_bin ( libs = ['xerces-c', 'TriggerMenuCompiler'], 
           name = 'writeLutDefinitions', 
           srcs = ['src/test/writeLutDefinitions.cxx'], 
           suffix = '', )
build_bin ( libs = ['xerces-c', 'TriggerMenuCompiler'], 
           name = 'validateXmlFile', 
           srcs = ['src/test/validateXmlFile.cxx'], 
           suffix = '', )
build_bin ( libs = ['xerces-c', 'TriggerMenuCompiler'], 
           name = 'testBinPacking', 
           srcs = ['src/test/testBinPacking.cxx'], 
           suffix = '', )
build_bin ( libs = ['xerces-c', 'TriggerMenuCompiler'], 
           name = 'testDeviceNetPort', 
           srcs = ['src/test/testDeviceNetPort.cxx'], 
           suffix = '', )
install_scripts ('scripts/runTriggerMenuCompilerApp.sh')
