add_deps ('Control/AthToolSupport/AsgTools')
add_deps ('Event/xAOD/xAODTrigger')
add_deps ('GaudiKernel')
add_private_deps ('Control/AthenaBaseComps')
add_private_deps ('Control/AthenaKernel')
add_private_deps ('Control/StoreGate')
add_private_deps ('Database/AthenaPOOL/AthenaPoolKernel')
add_private_deps ('Event/EventInfo')
add_private_deps ('PhysicsAnalysis/AnalysisTrigger/AnalysisTriggerEvent')
add_private_deps ('Trigger/TrigAnalysis/TrigAnalysisInterfaces')
add_private_deps ('Trigger/TrigConfiguration/TrigConfHLTData')
add_private_deps ('Trigger/TrigConfiguration/TrigConfInterfaces')
add_private_deps ('Trigger/TrigEvent/TrigDecisionEvent')
add_private_deps ('Trigger/TrigEvent/TrigDecisionInterface')
add_private_deps ('Trigger/TrigEvent/TrigSteeringEvent')
install_jo ( exclude = [], 
            namelist = ['share/*.py'], )
install_python ( namelist = 'python/*.py', )
build_lib ( cliddb = True, 
           component = True, 
           extra_libs = ['AsgTools', 'xAODTrigger', 'GaudiKernel', 'AthenaBaseComps', 'AthenaKernel', 'StoreGate', 'SGtests', 'EventInfo', 'AnalysisTriggerEvent', 'TrigConfHLTData', 'TrigDecisionEvent', 'TrigSteeringEvent'], 
           libname = 'xAODTriggerCnv', 
           srcs = 'xAODTriggerCnv/*.h src/*.cxx Root/*.cxx src/components/*.cxx', )
